{
  "project_info": {
    "project_number": "94724820538",
    "firebase_url": "https://inews-4f094.firebaseio.com",
    "project_id": "inews-4f094",
    "storage_bucket": "inews-4f094.appspot.com"
  },
  "client": [
    {
      "client_info": {
        "mobilesdk_app_id": "1:94724820538:android:98742afa970f8dc8",
        "android_client_info": {
          "package_name": "com.example.inews"
        }
      },
      "oauth_client": [
        {
          "client_id": "94724820538-ogfs7gnfbbk4pitqjjdv7vrufr1pl73i.apps.googleusercontent.com",
          "client_type": 1,
          "android_info": {
            "package_name": "com.example.inews",
            "certificate_hash": "100d7bdb597559d671ed88fc5775042d47239cac"
          }
        },
        {
          "client_id": "94724820538-u6t040do9c9aqvjt536vq5bvj3ll0cca.apps.googleusercontent.com",
          "client_type": 3
        }
      ],
      "api_key": [
        {
          "current_key": "AIzaSyDIPAzTBrliDFBkvkLi7ufkNJnIEi95ttk"
        }
      ],
      "services": {
        "appinvite_service": {
          "other_platform_oauth_client": [
            {
              "client_id": "94724820538-u6t040do9c9aqvjt536vq5bvj3ll0cca.apps.googleusercontent.com",
              "client_type": 3
            }
          ]
        }
      }
    }
  ],
  "configuration_version": "1"
}